id,labExpId,quality_i,readType,paired_i,sex,url,file_name,view,type,dataType,organism,project_name,organisation,group,user,date_dt,md5,asset_type
1,test,33,2x76,1,F,http://localhost:8000/,data/test.map.gz,map,map,RNAseq,human,Test,CRG,rguigo,epalumbo,2013-07-11T00:00:00.000Z,9c885f76734dfa914173c2ad41bc3ef6,data
2,test,33,2x76,1,F,http://localhost:8000/,data/test_filtered_4.map.gz,map,map,RNAseq,human,Test,CRG,rguigo,epalumbo,2013-07-11T00:00:00.000Z,c38553ea285c2ac03e58d84d43fc4882,data
3,test,33,2x76,1,F,http://localhost:8000/,data/test_filtered_4.bam,Alignments,bam,RNAseq,human,Test,CRG,rguigo,epalumbo,2013-07-11T00:00:00.000Z,feb4c40bbaaefd8b27a96bf5e749858e,data
4,test,33,2x76,1,F,http://localhost:8000/,data/test.gtf,gtf,gtf,RNAseq,human,Test,CRG,rguigo,epalumbo,2013-07-11T00:00:00.000Z,82e039b9f0a0e70ba83fd743df370b85,data
5,test,33,2x76,1,F,http://localhost:8000/,data/test_intron.gtf,Intron,gtf,RNAseq,human,Test,CRG,rguigo,epalumbo,2013-07-11T00:00:00.000Z,eb07a2142899415e04614295fe933e45,data
6,test,33,2x76,1,F,http://localhost:8000/,data/test_junction.gtf,Junction,gtf,RNAseq,human,Test,CRG,rguigo,epalumbo,2013-07-11T00:00:00.000Z,bf4a8febc6938fa6d8ff22104ae94a5e,data
7,test,33,2x76,1,F,http://localhost:8000/,data/test_transcript.gtf,Transcript,gtf,RNAseq,human,Test,CRG,rguigo,epalumbo,2013-07-11T00:00:00.000Z,1b6d414360bba46da70e3d0c70b08f29,data
8,test,33,2x76,1,F,http://localhost:8000/,data/test_1.fastq.gz,FqRd1,fastq,RNAseq,human,Test,CRG,rguigo,epalumbo,2013-07-11T00:00:00.000Z,db1ca59afee6584b50f8653307a4ecbc,data
9,test,33,2x76,1,F,http://localhost:8000/,data/test_2.fastq.gz,FqRd2,fastq,RNAseq,human,Test,CRG,rguigo,epalumbo,2013-07-11T00:00:00.000Z,ea4b7dc1af21d7d7d64c3b7020d62d40,data
10,test,33,2x76,1,F,http://localhost:8000/,data/test_filtered_4.bam.bai,Alignments,bai,RNAseq,human,Test,CRG,rguigo,epalumbo,2013-07-11T00:00:00.000Z,b1fbfaebf005de3396bc458b65501e3e,data
11,test,33,2x76,1,F,http://localhost:8000/,data/test_distinct_exon_with_rpkm.gff,Exon,gff,RNAseq,human,Test,CRG,rguigo,epalumbo,2013-07-11T00:00:00.000Z,65b620dd21c2af9cb5a960002697d176,data
12,test,33,2x76,1,F,http://localhost:8000/,data/test_gene_with_rpkm.gff,Gene,gff,RNAseq,human,Test,CRG,rguigo,epalumbo,2013-07-11T00:00:00.000Z,530a2de52f1d0b18cc7d032506108b65,data
13,test,33,2x76,1,F,http://localhost:8000/,data/test.stats.all.json_stats/error_profile.png,error_profile,png,RNAseq,human,Test,CRG,rguigo,epalumbo,2013-07-11T00:00:00.000Z,,statistics
14,test,33,2x76,1,F,http://localhost:8000/,data/test.stats.all.json_stats/general.png,general,png,RNAseq,human,Test,CRG,rguigo,epalumbo,2013-07-11T00:00:00.000Z,,statistics
15,test,33,2x76,1,F,http://localhost:8000/,data/test.stats.all.json_stats/junctions_profile.png,junctions_profile,png,RNAseq,human,Test,CRG,rguigo,epalumbo,2013-07-11T00:00:00.000Z,,statistics
16,test,33,2x76,1,F,http://localhost:8000/,data/test.stats.all.json_stats/ranges.png,ranges,png,RNAseq,human,Test,CRG,rguigo,epalumbo,2013-07-11T00:00:00.000Z,,statistics
17,test,33,2x76,1,F,http://localhost:8000/,data/test.stats.all.json_stats/transitions.png,transitions,png,RNAseq,human,Test,CRG,rguigo,epalumbo,2013-07-11T00:00:00.000Z,,statistics
18,test,33,2x76,1,F,http://localhost:8000/,data/test.stats.all.json_stats/transitions_1context.png,transitions_1context,png,RNAseq,human,Test,CRG,rguigo,epalumbo,2013-07-11T00:00:00.000Z,,statistics
19,test,33,2x76,1,F,http://localhost:8000/,data/test.stats.all.json_stats/index.html,index,html,RNAseq,human,Test,CRG,rguigo,epalumbo,2013-07-11T00:00:00.000Z,,statistics
20,test,33,2x76,1,F,http://localhost:8000/,data/test.stats.all.json_stats/stats.json,stats,json,RNAseq,human,Test,CRG,rguigo,epalumbo,2013-07-11T00:00:00.000Z,,statistics
21,test,33,2x76,1,F,http://localhost:8000/,data/test.stats.all.json_stats/general.json,general,json,RNAseq,human,Test,CRG,rguigo,epalumbo,2013-07-11T00:00:00.000Z,,statistics
